(['C:\\Users\\vital\\Desktop\\artem\\project\\main.py'],
 ['C:\\Users\\vital\\Desktop\\artem\\project',
  'C:\\Users\\vital\\Desktop\\artem\\project'],
 ['codecs'],
 ['c:\\users\\vital\\desktop\\artem\\project\\venv\\lib\\site-packages\\_pyinstaller_hooks_contrib\\hooks\\stdhooks',
  'c:\\users\\vital\\desktop\\artem\\project\\venv\\lib\\site-packages\\_pyinstaller_hooks_contrib\\hooks\\stdhooks\\__pycache__',
  'c:\\users\\vital\\desktop\\artem\\project\\venv\\lib\\site-packages\\_pyinstaller_hooks_contrib\\hooks\\rthooks',
  'c:\\users\\vital\\desktop\\artem\\project\\venv\\lib\\site-packages\\_pyinstaller_hooks_contrib\\hooks\\rthooks\\__pycache__',
  'c:\\users\\vital\\desktop\\artem\\project\\venv\\lib\\site-packages\\_pyinstaller_hooks_contrib\\hooks'],
 [],
 [],
 False,
 False,
 '3.9.0 (tags/v3.9.0:9cf6752, Oct  5 2020, 15:34:40) [MSC v.1927 64 bit '
 '(AMD64)]',
 [('pyi_rth_multiprocessing',
   'C:\\Users\\vital\\Desktop\\artem\\project\\venv\\Lib\\site-packages\\PyInstaller\\hooks\\rthooks\\pyi_rth_multiprocessing.py',
   'PYSOURCE'),
  ('pyi_rth_pyqt5',
   'C:\\Users\\vital\\Desktop\\artem\\project\\venv\\Lib\\site-packages\\PyInstaller\\hooks\\rthooks\\pyi_rth_pyqt5.py',
   'PYSOURCE'),
  ('main', 'C:\\Users\\vital\\Desktop\\artem\\project\\main.py', 'PYSOURCE')],
 [('multiprocessing.popen_spawn_posix',
   'C:\\Users\\vital\\AppData\\Local\\Programs\\Python\\Python39\\lib\\multiprocessing\\popen_spawn_posix.py',
   'PYMODULE'),
  ('multiprocessing.resource_tracker',
   'C:\\Users\\vital\\AppData\\Local\\Programs\\Python\\Python39\\lib\\multiprocessing\\resource_tracker.py',
   'PYMODULE'),
  ('threading',
   'C:\\Users\\vital\\AppData\\Local\\Programs\\Python\\Python39\\lib\\threading.py',
   'PYMODULE'),
  ('_threading_local',
   'C:\\Users\\vital\\AppData\\Local\\Programs\\Python\\Python39\\lib\\_threading_local.py',
   'PYMODULE'),
  ('contextlib',
   'C:\\Users\\vital\\AppData\\Local\\Programs\\Python\\Python39\\lib\\contextlib.py',
   'PYMODULE'),
  ('signal',
   'C:\\Users\\vital\\AppData\\Local\\Programs\\Python\\Python39\\lib\\signal.py',
   'PYMODULE'),
  ('multiprocessing.util',
   'C:\\Users\\vital\\AppData\\Local\\Programs\\Python\\Python39\\lib\\multiprocessing\\util.py',
   'PYMODULE'),
  ('multiprocessing.forkserver',
   'C:\\Users\\vital\\AppData\\Local\\Programs\\Python\\Python39\\lib\\multiprocessing\\forkserver.py',
   'PYMODULE'),
  ('multiprocessing.connection',
   'C:\\Users\\vital\\AppData\\Local\\Programs\\Python\\Python39\\lib\\multiprocessing\\connection.py',
   'PYMODULE'),
  ('multiprocessing.resource_sharer',
   'C:\\Users\\vital\\AppData\\Local\\Programs\\Python\\Python39\\lib\\multiprocessing\\resource_sharer.py',
   'PYMODULE'),
  ('xmlrpc.client',
   'C:\\Users\\vital\\AppData\\Local\\Programs\\Python\\Python39\\lib\\xmlrpc\\client.py',
   'PYMODULE'),
  ('xmlrpc',
   'C:\\Users\\vital\\AppData\\Local\\Programs\\Python\\Python39\\lib\\xmlrpc\\__init__.py',
   'PYMODULE'),
  ('gzip',
   'C:\\Users\\vital\\AppData\\Local\\Programs\\Python\\Python39\\lib\\gzip.py',
   'PYMODULE'),
  ('argparse',
   'C:\\Users\\vital\\AppData\\Local\\Programs\\Python\\Python39\\lib\\argparse.py',
   'PYMODULE'),
  ('textwrap',
   'C:\\Users\\vital\\AppData\\Local\\Programs\\Python\\Python39\\lib\\textwrap.py',
   'PYMODULE'),
  ('copy',
   'C:\\Users\\vital\\AppData\\Local\\Programs\\Python\\Python39\\lib\\copy.py',
   'PYMODULE'),
  ('gettext',
   'C:\\Users\\vital\\AppData\\Local\\Programs\\Python\\Python39\\lib\\gettext.py',
   'PYMODULE'),
  ('_compression',
   'C:\\Users\\vital\\AppData\\Local\\Programs\\Python\\Python39\\lib\\_compression.py',
   'PYMODULE'),
  ('xml.parsers.expat',
   'C:\\Users\\vital\\AppData\\Local\\Programs\\Python\\Python39\\lib\\xml\\parsers\\expat.py',
   'PYMODULE'),
  ('xml.parsers',
   'C:\\Users\\vital\\AppData\\Local\\Programs\\Python\\Python39\\lib\\xml\\parsers\\__init__.py',
   'PYMODULE'),
  ('xml',
   'C:\\Users\\vital\\AppData\\Local\\Programs\\Python\\Python39\\lib\\xml\\__init__.py',
   'PYMODULE'),
  ('xml.sax.expatreader',
   'C:\\Users\\vital\\AppData\\Local\\Programs\\Python\\Python39\\lib\\xml\\sax\\expatreader.py',
   'PYMODULE'),
  ('xml.sax.saxutils',
   'C:\\Users\\vital\\AppData\\Local\\Programs\\Python\\Python39\\lib\\xml\\sax\\saxutils.py',
   'PYMODULE'),
  ('urllib.request',
   'C:\\Users\\vital\\AppData\\Local\\Programs\\Python\\Python39\\lib\\urllib\\request.py',
   'PYMODULE'),
  ('fnmatch',
   'C:\\Users\\vital\\AppData\\Local\\Programs\\Python\\Python39\\lib\\fnmatch.py',
   'PYMODULE'),
  ('getpass',
   'C:\\Users\\vital\\AppData\\Local\\Programs\\Python\\Python39\\lib\\getpass.py',
   'PYMODULE'),
  ('nturl2path',
   'C:\\Users\\vital\\AppData\\Local\\Programs\\Python\\Python39\\lib\\nturl2path.py',
   'PYMODULE'),
  ('ftplib',
   'C:\\Users\\vital\\AppData\\Local\\Programs\\Python\\Python39\\lib\\ftplib.py',
   'PYMODULE'),
  ('netrc',
   'C:\\Users\\vital\\AppData\\Local\\Programs\\Python\\Python39\\lib\\netrc.py',
   'PYMODULE'),
  ('stat',
   'C:\\Users\\vital\\AppData\\Local\\Programs\\Python\\Python39\\lib\\stat.py',
   'PYMODULE'),
  ('shlex',
   'C:\\Users\\vital\\AppData\\Local\\Programs\\Python\\Python39\\lib\\shlex.py',
   'PYMODULE'),
  ('mimetypes',
   'C:\\Users\\vital\\AppData\\Local\\Programs\\Python\\Python39\\lib\\mimetypes.py',
   'PYMODULE'),
  ('getopt',
   'C:\\Users\\vital\\AppData\\Local\\Programs\\Python\\Python39\\lib\\getopt.py',
   'PYMODULE'),
  ('email.utils',
   'C:\\Users\\vital\\AppData\\Local\\Programs\\Python\\Python39\\lib\\email\\utils.py',
   'PYMODULE'),
  ('email.charset',
   'C:\\Users\\vital\\AppData\\Local\\Programs\\Python\\Python39\\lib\\email\\charset.py',
   'PYMODULE'),
  ('email.encoders',
   'C:\\Users\\vital\\AppData\\Local\\Programs\\Python\\Python39\\lib\\email\\encoders.py',
   'PYMODULE'),
  ('quopri',
   'C:\\Users\\vital\\AppData\\Local\\Programs\\Python\\Python39\\lib\\quopri.py',
   'PYMODULE'),
  ('email.errors',
   'C:\\Users\\vital\\AppData\\Local\\Programs\\Python\\Python39\\lib\\email\\errors.py',
   'PYMODULE'),
  ('email.quoprimime',
   'C:\\Users\\vital\\AppData\\Local\\Programs\\Python\\Python39\\lib\\email\\quoprimime.py',
   'PYMODULE'),
  ('email.base64mime',
   'C:\\Users\\vital\\AppData\\Local\\Programs\\Python\\Python39\\lib\\email\\base64mime.py',
   'PYMODULE'),
  ('email._parseaddr',
   'C:\\Users\\vital\\AppData\\Local\\Programs\\Python\\Python39\\lib\\email\\_parseaddr.py',
   'PYMODULE'),
  ('calendar',
   'C:\\Users\\vital\\AppData\\Local\\Programs\\Python\\Python39\\lib\\calendar.py',
   'PYMODULE'),
  ('random',
   'C:\\Users\\vital\\AppData\\Local\\Programs\\Python\\Python39\\lib\\random.py',
   'PYMODULE'),
  ('statistics',
   'C:\\Users\\vital\\AppData\\Local\\Programs\\Python\\Python39\\lib\\statistics.py',
   'PYMODULE'),
  ('fractions',
   'C:\\Users\\vital\\AppData\\Local\\Programs\\Python\\Python39\\lib\\fractions.py',
   'PYMODULE'),
  ('numbers',
   'C:\\Users\\vital\\AppData\\Local\\Programs\\Python\\Python39\\lib\\numbers.py',
   'PYMODULE'),
  ('http.cookiejar',
   'C:\\Users\\vital\\AppData\\Local\\Programs\\Python\\Python39\\lib\\http\\cookiejar.py',
   'PYMODULE'),
  ('http',
   'C:\\Users\\vital\\AppData\\Local\\Programs\\Python\\Python39\\lib\\http\\__init__.py',
   'PYMODULE'),
  ('urllib',
   'C:\\Users\\vital\\AppData\\Local\\Programs\\Python\\Python39\\lib\\urllib\\__init__.py',
   'PYMODULE'),
  ('ssl',
   'C:\\Users\\vital\\AppData\\Local\\Programs\\Python\\Python39\\lib\\ssl.py',
   'PYMODULE'),
  ('urllib.response',
   'C:\\Users\\vital\\AppData\\Local\\Programs\\Python\\Python39\\lib\\urllib\\response.py',
   'PYMODULE'),
  ('urllib.error',
   'C:\\Users\\vital\\AppData\\Local\\Programs\\Python\\Python39\\lib\\urllib\\error.py',
   'PYMODULE'),
  ('string',
   'C:\\Users\\vital\\AppData\\Local\\Programs\\Python\\Python39\\lib\\string.py',
   'PYMODULE'),
  ('posixpath',
   'C:\\Users\\vital\\AppData\\Local\\Programs\\Python\\Python39\\lib\\posixpath.py',
   'PYMODULE'),
  ('genericpath',
   'C:\\Users\\vital\\AppData\\Local\\Programs\\Python\\Python39\\lib\\genericpath.py',
   'PYMODULE'),
  ('hashlib',
   'C:\\Users\\vital\\AppData\\Local\\Programs\\Python\\Python39\\lib\\hashlib.py',
   'PYMODULE'),
  ('email',
   'C:\\Users\\vital\\AppData\\Local\\Programs\\Python\\Python39\\lib\\email\\__init__.py',
   'PYMODULE'),
  ('email.parser',
   'C:\\Users\\vital\\AppData\\Local\\Programs\\Python\\Python39\\lib\\email\\parser.py',
   'PYMODULE'),
  ('email._policybase',
   'C:\\Users\\vital\\AppData\\Local\\Programs\\Python\\Python39\\lib\\email\\_policybase.py',
   'PYMODULE'),
  ('email.feedparser',
   'C:\\Users\\vital\\AppData\\Local\\Programs\\Python\\Python39\\lib\\email\\feedparser.py',
   'PYMODULE'),
  ('email.message',
   'C:\\Users\\vital\\AppData\\Local\\Programs\\Python\\Python39\\lib\\email\\message.py',
   'PYMODULE'),
  ('email.policy',
   'C:\\Users\\vital\\AppData\\Local\\Programs\\Python\\Python39\\lib\\email\\policy.py',
   'PYMODULE'),
  ('email.contentmanager',
   'C:\\Users\\vital\\AppData\\Local\\Programs\\Python\\Python39\\lib\\email\\contentmanager.py',
   'PYMODULE'),
  ('email.headerregistry',
   'C:\\Users\\vital\\AppData\\Local\\Programs\\Python\\Python39\\lib\\email\\headerregistry.py',
   'PYMODULE'),
  ('email.iterators',
   'C:\\Users\\vital\\AppData\\Local\\Programs\\Python\\Python39\\lib\\email\\iterators.py',
   'PYMODULE'),
  ('email.generator',
   'C:\\Users\\vital\\AppData\\Local\\Programs\\Python\\Python39\\lib\\email\\generator.py',
   'PYMODULE'),
  ('email._encoded_words',
   'C:\\Users\\vital\\AppData\\Local\\Programs\\Python\\Python39\\lib\\email\\_encoded_words.py',
   'PYMODULE'),
  ('uu',
   'C:\\Users\\vital\\AppData\\Local\\Programs\\Python\\Python39\\lib\\uu.py',
   'PYMODULE'),
  ('optparse',
   'C:\\Users\\vital\\AppData\\Local\\Programs\\Python\\Python39\\lib\\optparse.py',
   'PYMODULE'),
  ('email._header_value_parser',
   'C:\\Users\\vital\\AppData\\Local\\Programs\\Python\\Python39\\lib\\email\\_header_value_parser.py',
   'PYMODULE'),
  ('email.header',
   'C:\\Users\\vital\\AppData\\Local\\Programs\\Python\\Python39\\lib\\email\\header.py',
   'PYMODULE'),
  ('bisect',
   'C:\\Users\\vital\\AppData\\Local\\Programs\\Python\\Python39\\lib\\bisect.py',
   'PYMODULE'),
  ('xml.sax',
   'C:\\Users\\vital\\AppData\\Local\\Programs\\Python\\Python39\\lib\\xml\\sax\\__init__.py',
   'PYMODULE'),
  ('xml.sax.handler',
   'C:\\Users\\vital\\AppData\\Local\\Programs\\Python\\Python39\\lib\\xml\\sax\\handler.py',
   'PYMODULE'),
  ('xml.sax._exceptions',
   'C:\\Users\\vital\\AppData\\Local\\Programs\\Python\\Python39\\lib\\xml\\sax\\_exceptions.py',
   'PYMODULE'),
  ('xml.sax.xmlreader',
   'C:\\Users\\vital\\AppData\\Local\\Programs\\Python\\Python39\\lib\\xml\\sax\\xmlreader.py',
   'PYMODULE'),
  ('urllib.parse',
   'C:\\Users\\vital\\AppData\\Local\\Programs\\Python\\Python39\\lib\\urllib\\parse.py',
   'PYMODULE'),
  ('http.client',
   'C:\\Users\\vital\\AppData\\Local\\Programs\\Python\\Python39\\lib\\http\\client.py',
   'PYMODULE'),
  ('decimal',
   'C:\\Users\\vital\\AppData\\Local\\Programs\\Python\\Python39\\lib\\decimal.py',
   'PYMODULE'),
  ('_pydecimal',
   'C:\\Users\\vital\\AppData\\Local\\Programs\\Python\\Python39\\lib\\_pydecimal.py',
   'PYMODULE'),
  ('contextvars',
   'C:\\Users\\vital\\AppData\\Local\\Programs\\Python\\Python39\\lib\\contextvars.py',
   'PYMODULE'),
  ('base64',
   'C:\\Users\\vital\\AppData\\Local\\Programs\\Python\\Python39\\lib\\base64.py',
   'PYMODULE'),
  ('hmac',
   'C:\\Users\\vital\\AppData\\Local\\Programs\\Python\\Python39\\lib\\hmac.py',
   'PYMODULE'),
  ('struct',
   'C:\\Users\\vital\\AppData\\Local\\Programs\\Python\\Python39\\lib\\struct.py',
   'PYMODULE'),
  ('socket',
   'C:\\Users\\vital\\AppData\\Local\\Programs\\Python\\Python39\\lib\\socket.py',
   'PYMODULE'),
  ('selectors',
   'C:\\Users\\vital\\AppData\\Local\\Programs\\Python\\Python39\\lib\\selectors.py',
   'PYMODULE'),
  ('tempfile',
   'C:\\Users\\vital\\AppData\\Local\\Programs\\Python\\Python39\\lib\\tempfile.py',
   'PYMODULE'),
  ('shutil',
   'C:\\Users\\vital\\AppData\\Local\\Programs\\Python\\Python39\\lib\\shutil.py',
   'PYMODULE'),
  ('zipfile',
   'C:\\Users\\vital\\AppData\\Local\\Programs\\Python\\Python39\\lib\\zipfile.py',
   'PYMODULE'),
  ('py_compile',
   'C:\\Users\\vital\\AppData\\Local\\Programs\\Python\\Python39\\lib\\py_compile.py',
   'PYMODULE'),
  ('ntpath',
   'C:\\Users\\vital\\AppData\\Local\\Programs\\Python\\Python39\\lib\\ntpath.py',
   'PYMODULE'),
  ('importlib.machinery',
   'C:\\Users\\vital\\AppData\\Local\\Programs\\Python\\Python39\\lib\\importlib\\machinery.py',
   'PYMODULE'),
  ('importlib',
   'C:\\Users\\vital\\AppData\\Local\\Programs\\Python\\Python39\\lib\\importlib\\__init__.py',
   'PYMODULE'),
  ('importlib._bootstrap',
   'C:\\Users\\vital\\AppData\\Local\\Programs\\Python\\Python39\\lib\\importlib\\_bootstrap.py',
   'PYMODULE'),
  ('importlib._bootstrap_external',
   'C:\\Users\\vital\\AppData\\Local\\Programs\\Python\\Python39\\lib\\importlib\\_bootstrap_external.py',
   'PYMODULE'),
  ('importlib.metadata',
   'C:\\Users\\vital\\AppData\\Local\\Programs\\Python\\Python39\\lib\\importlib\\metadata.py',
   'PYMODULE'),
  ('importlib.abc',
   'C:\\Users\\vital\\AppData\\Local\\Programs\\Python\\Python39\\lib\\importlib\\abc.py',
   'PYMODULE'),
  ('typing',
   'C:\\Users\\vital\\AppData\\Local\\Programs\\Python\\Python39\\lib\\typing.py',
   'PYMODULE'),
  ('configparser',
   'C:\\Users\\vital\\AppData\\Local\\Programs\\Python\\Python39\\lib\\configparser.py',
   'PYMODULE'),
  ('pathlib',
   'C:\\Users\\vital\\AppData\\Local\\Programs\\Python\\Python39\\lib\\pathlib.py',
   'PYMODULE'),
  ('csv',
   'C:\\Users\\vital\\AppData\\Local\\Programs\\Python\\Python39\\lib\\csv.py',
   'PYMODULE'),
  ('tokenize',
   'C:\\Users\\vital\\AppData\\Local\\Programs\\Python\\Python39\\lib\\tokenize.py',
   'PYMODULE'),
  ('token',
   'C:\\Users\\vital\\AppData\\Local\\Programs\\Python\\Python39\\lib\\token.py',
   'PYMODULE'),
  ('importlib.util',
   'C:\\Users\\vital\\AppData\\Local\\Programs\\Python\\Python39\\lib\\importlib\\util.py',
   'PYMODULE'),
  ('tarfile',
   'C:\\Users\\vital\\AppData\\Local\\Programs\\Python\\Python39\\lib\\tarfile.py',
   'PYMODULE'),
  ('lzma',
   'C:\\Users\\vital\\AppData\\Local\\Programs\\Python\\Python39\\lib\\lzma.py',
   'PYMODULE'),
  ('bz2',
   'C:\\Users\\vital\\AppData\\Local\\Programs\\Python\\Python39\\lib\\bz2.py',
   'PYMODULE'),
  ('logging',
   'C:\\Users\\vital\\AppData\\Local\\Programs\\Python\\Python39\\lib\\logging\\__init__.py',
   'PYMODULE'),
  ('pickle',
   'C:\\Users\\vital\\AppData\\Local\\Programs\\Python\\Python39\\lib\\pickle.py',
   'PYMODULE'),
  ('pprint',
   'C:\\Users\\vital\\AppData\\Local\\Programs\\Python\\Python39\\lib\\pprint.py',
   'PYMODULE'),
  ('doctest',
   'C:\\Users\\vital\\AppData\\Local\\Programs\\Python\\Python39\\lib\\doctest.py',
   'PYMODULE'),
  ('unittest',
   'C:\\Users\\vital\\AppData\\Local\\Programs\\Python\\Python39\\lib\\unittest\\__init__.py',
   'PYMODULE'),
  ('unittest.async_case',
   'C:\\Users\\vital\\AppData\\Local\\Programs\\Python\\Python39\\lib\\unittest\\async_case.py',
   'PYMODULE'),
  ('asyncio',
   'C:\\Users\\vital\\AppData\\Local\\Programs\\Python\\Python39\\lib\\asyncio\\__init__.py',
   'PYMODULE'),
  ('asyncio.unix_events',
   'C:\\Users\\vital\\AppData\\Local\\Programs\\Python\\Python39\\lib\\asyncio\\unix_events.py',
   'PYMODULE'),
  ('asyncio.log',
   'C:\\Users\\vital\\AppData\\Local\\Programs\\Python\\Python39\\lib\\asyncio\\log.py',
   'PYMODULE'),
  ('asyncio.windows_events',
   'C:\\Users\\vital\\AppData\\Local\\Programs\\Python\\Python39\\lib\\asyncio\\windows_events.py',
   'PYMODULE'),
  ('asyncio.windows_utils',
   'C:\\Users\\vital\\AppData\\Local\\Programs\\Python\\Python39\\lib\\asyncio\\windows_utils.py',
   'PYMODULE'),
  ('asyncio.selector_events',
   'C:\\Users\\vital\\AppData\\Local\\Programs\\Python\\Python39\\lib\\asyncio\\selector_events.py',
   'PYMODULE'),
  ('asyncio.proactor_events',
   'C:\\Users\\vital\\AppData\\Local\\Programs\\Python\\Python39\\lib\\asyncio\\proactor_events.py',
   'PYMODULE'),
  ('asyncio.base_subprocess',
   'C:\\Users\\vital\\AppData\\Local\\Programs\\Python\\Python39\\lib\\asyncio\\base_subprocess.py',
   'PYMODULE'),
  ('asyncio.threads',
   'C:\\Users\\vital\\AppData\\Local\\Programs\\Python\\Python39\\lib\\asyncio\\threads.py',
   'PYMODULE'),
  ('asyncio.subprocess',
   'C:\\Users\\vital\\AppData\\Local\\Programs\\Python\\Python39\\lib\\asyncio\\subprocess.py',
   'PYMODULE'),
  ('asyncio.streams',
   'C:\\Users\\vital\\AppData\\Local\\Programs\\Python\\Python39\\lib\\asyncio\\streams.py',
   'PYMODULE'),
  ('asyncio.queues',
   'C:\\Users\\vital\\AppData\\Local\\Programs\\Python\\Python39\\lib\\asyncio\\queues.py',
   'PYMODULE'),
  ('asyncio.runners',
   'C:\\Users\\vital\\AppData\\Local\\Programs\\Python\\Python39\\lib\\asyncio\\runners.py',
   'PYMODULE'),
  ('asyncio.events',
   'C:\\Users\\vital\\AppData\\Local\\Programs\\Python\\Python39\\lib\\asyncio\\events.py',
   'PYMODULE'),
  ('asyncio.base_events',
   'C:\\Users\\vital\\AppData\\Local\\Programs\\Python\\Python39\\lib\\asyncio\\base_events.py',
   'PYMODULE'),
  ('concurrent.futures',
   'C:\\Users\\vital\\AppData\\Local\\Programs\\Python\\Python39\\lib\\concurrent\\futures\\__init__.py',
   'PYMODULE'),
  ('concurrent.futures.thread',
   'C:\\Users\\vital\\AppData\\Local\\Programs\\Python\\Python39\\lib\\concurrent\\futures\\thread.py',
   'PYMODULE'),
  ('queue',
   'C:\\Users\\vital\\AppData\\Local\\Programs\\Python\\Python39\\lib\\queue.py',
   'PYMODULE'),
  ('concurrent.futures.process',
   'C:\\Users\\vital\\AppData\\Local\\Programs\\Python\\Python39\\lib\\concurrent\\futures\\process.py',
   'PYMODULE'),
  ('multiprocessing.queues',
   'C:\\Users\\vital\\AppData\\Local\\Programs\\Python\\Python39\\lib\\multiprocessing\\queues.py',
   'PYMODULE'),
  ('multiprocessing.synchronize',
   'C:\\Users\\vital\\AppData\\Local\\Programs\\Python\\Python39\\lib\\multiprocessing\\synchronize.py',
   'PYMODULE'),
  ('multiprocessing.heap',
   'C:\\Users\\vital\\AppData\\Local\\Programs\\Python\\Python39\\lib\\multiprocessing\\heap.py',
   'PYMODULE'),
  ('concurrent.futures._base',
   'C:\\Users\\vital\\AppData\\Local\\Programs\\Python\\Python39\\lib\\concurrent\\futures\\_base.py',
   'PYMODULE'),
  ('concurrent',
   'C:\\Users\\vital\\AppData\\Local\\Programs\\Python\\Python39\\lib\\concurrent\\__init__.py',
   'PYMODULE'),
  ('asyncio.trsock',
   'C:\\Users\\vital\\AppData\\Local\\Programs\\Python\\Python39\\lib\\asyncio\\trsock.py',
   'PYMODULE'),
  ('asyncio.staggered',
   'C:\\Users\\vital\\AppData\\Local\\Programs\\Python\\Python39\\lib\\asyncio\\staggered.py',
   'PYMODULE'),
  ('asyncio.tasks',
   'C:\\Users\\vital\\AppData\\Local\\Programs\\Python\\Python39\\lib\\asyncio\\tasks.py',
   'PYMODULE'),
  ('asyncio.base_tasks',
   'C:\\Users\\vital\\AppData\\Local\\Programs\\Python\\Python39\\lib\\asyncio\\base_tasks.py',
   'PYMODULE'),
  ('asyncio.locks',
   'C:\\Users\\vital\\AppData\\Local\\Programs\\Python\\Python39\\lib\\asyncio\\locks.py',
   'PYMODULE'),
  ('asyncio.sslproto',
   'C:\\Users\\vital\\AppData\\Local\\Programs\\Python\\Python39\\lib\\asyncio\\sslproto.py',
   'PYMODULE'),
  ('asyncio.transports',
   'C:\\Users\\vital\\AppData\\Local\\Programs\\Python\\Python39\\lib\\asyncio\\transports.py',
   'PYMODULE'),
  ('asyncio.protocols',
   'C:\\Users\\vital\\AppData\\Local\\Programs\\Python\\Python39\\lib\\asyncio\\protocols.py',
   'PYMODULE'),
  ('asyncio.futures',
   'C:\\Users\\vital\\AppData\\Local\\Programs\\Python\\Python39\\lib\\asyncio\\futures.py',
   'PYMODULE'),
  ('asyncio.exceptions',
   'C:\\Users\\vital\\AppData\\Local\\Programs\\Python\\Python39\\lib\\asyncio\\exceptions.py',
   'PYMODULE'),
  ('asyncio.coroutines',
   'C:\\Users\\vital\\AppData\\Local\\Programs\\Python\\Python39\\lib\\asyncio\\coroutines.py',
   'PYMODULE'),
  ('asyncio.base_futures',
   'C:\\Users\\vital\\AppData\\Local\\Programs\\Python\\Python39\\lib\\asyncio\\base_futures.py',
   'PYMODULE'),
  ('asyncio.format_helpers',
   'C:\\Users\\vital\\AppData\\Local\\Programs\\Python\\Python39\\lib\\asyncio\\format_helpers.py',
   'PYMODULE'),
  ('asyncio.constants',
   'C:\\Users\\vital\\AppData\\Local\\Programs\\Python\\Python39\\lib\\asyncio\\constants.py',
   'PYMODULE'),
  ('unittest.signals',
   'C:\\Users\\vital\\AppData\\Local\\Programs\\Python\\Python39\\lib\\unittest\\signals.py',
   'PYMODULE'),
  ('unittest.main',
   'C:\\Users\\vital\\AppData\\Local\\Programs\\Python\\Python39\\lib\\unittest\\main.py',
   'PYMODULE'),
  ('unittest.runner',
   'C:\\Users\\vital\\AppData\\Local\\Programs\\Python\\Python39\\lib\\unittest\\runner.py',
   'PYMODULE'),
  ('unittest.loader',
   'C:\\Users\\vital\\AppData\\Local\\Programs\\Python\\Python39\\lib\\unittest\\loader.py',
   'PYMODULE'),
  ('unittest.suite',
   'C:\\Users\\vital\\AppData\\Local\\Programs\\Python\\Python39\\lib\\unittest\\suite.py',
   'PYMODULE'),
  ('unittest.case',
   'C:\\Users\\vital\\AppData\\Local\\Programs\\Python\\Python39\\lib\\unittest\\case.py',
   'PYMODULE'),
  ('unittest._log',
   'C:\\Users\\vital\\AppData\\Local\\Programs\\Python\\Python39\\lib\\unittest\\_log.py',
   'PYMODULE'),
  ('unittest.result',
   'C:\\Users\\vital\\AppData\\Local\\Programs\\Python\\Python39\\lib\\unittest\\result.py',
   'PYMODULE'),
  ('unittest.util',
   'C:\\Users\\vital\\AppData\\Local\\Programs\\Python\\Python39\\lib\\unittest\\util.py',
   'PYMODULE'),
  ('pdb',
   'C:\\Users\\vital\\AppData\\Local\\Programs\\Python\\Python39\\lib\\pdb.py',
   'PYMODULE'),
  ('pydoc',
   'C:\\Users\\vital\\AppData\\Local\\Programs\\Python\\Python39\\lib\\pydoc.py',
   'PYMODULE'),
  ('webbrowser',
   'C:\\Users\\vital\\AppData\\Local\\Programs\\Python\\Python39\\lib\\webbrowser.py',
   'PYMODULE'),
  ('http.server',
   'C:\\Users\\vital\\AppData\\Local\\Programs\\Python\\Python39\\lib\\http\\server.py',
   'PYMODULE'),
  ('socketserver',
   'C:\\Users\\vital\\AppData\\Local\\Programs\\Python\\Python39\\lib\\socketserver.py',
   'PYMODULE'),
  ('html',
   'C:\\Users\\vital\\AppData\\Local\\Programs\\Python\\Python39\\lib\\html\\__init__.py',
   'PYMODULE'),
  ('html.entities',
   'C:\\Users\\vital\\AppData\\Local\\Programs\\Python\\Python39\\lib\\html\\entities.py',
   'PYMODULE'),
  ('pydoc_data.topics',
   'C:\\Users\\vital\\AppData\\Local\\Programs\\Python\\Python39\\lib\\pydoc_data\\topics.py',
   'PYMODULE'),
  ('pydoc_data',
   'C:\\Users\\vital\\AppData\\Local\\Programs\\Python\\Python39\\lib\\pydoc_data\\__init__.py',
   'PYMODULE'),
  ('tty',
   'C:\\Users\\vital\\AppData\\Local\\Programs\\Python\\Python39\\lib\\tty.py',
   'PYMODULE'),
  ('sysconfig',
   'C:\\Users\\vital\\AppData\\Local\\Programs\\Python\\Python39\\lib\\sysconfig.py',
   'PYMODULE'),
  ('_aix_support',
   'C:\\Users\\vital\\AppData\\Local\\Programs\\Python\\Python39\\lib\\_aix_support.py',
   'PYMODULE'),
  ('_bootsubprocess',
   'C:\\Users\\vital\\AppData\\Local\\Programs\\Python\\Python39\\lib\\_bootsubprocess.py',
   'PYMODULE'),
  ('_osx_support',
   'C:\\Users\\vital\\AppData\\Local\\Programs\\Python\\Python39\\lib\\_osx_support.py',
   'PYMODULE'),
  ('distutils.log',
   'C:\\Users\\vital\\AppData\\Local\\Programs\\Python\\Python39\\lib\\distutils\\log.py',
   'PYMODULE'),
  ('distutils',
   'C:\\Users\\vital\\AppData\\Local\\Programs\\Python\\Python39\\lib\\distutils\\__init__.py',
   'PYMODULE'),
  ('distutils.ccompiler',
   'C:\\Users\\vital\\AppData\\Local\\Programs\\Python\\Python39\\lib\\distutils\\ccompiler.py',
   'PYMODULE'),
  ('distutils.fancy_getopt',
   'C:\\Users\\vital\\AppData\\Local\\Programs\\Python\\Python39\\lib\\distutils\\fancy_getopt.py',
   'PYMODULE'),
  ('distutils.debug',
   'C:\\Users\\vital\\AppData\\Local\\Programs\\Python\\Python39\\lib\\distutils\\debug.py',
   'PYMODULE'),
  ('distutils.util',
   'C:\\Users\\vital\\AppData\\Local\\Programs\\Python\\Python39\\lib\\distutils\\util.py',
   'PYMODULE'),
  ('distutils.filelist',
   'C:\\Users\\vital\\AppData\\Local\\Programs\\Python\\Python39\\lib\\distutils\\filelist.py',
   'PYMODULE'),
  ('distutils.dep_util',
   'C:\\Users\\vital\\AppData\\Local\\Programs\\Python\\Python39\\lib\\distutils\\dep_util.py',
   'PYMODULE'),
  ('distutils.dir_util',
   'C:\\Users\\vital\\AppData\\Local\\Programs\\Python\\Python39\\lib\\distutils\\dir_util.py',
   'PYMODULE'),
  ('distutils.file_util',
   'C:\\Users\\vital\\AppData\\Local\\Programs\\Python\\Python39\\lib\\distutils\\file_util.py',
   'PYMODULE'),
  ('distutils.spawn',
   'C:\\Users\\vital\\AppData\\Local\\Programs\\Python\\Python39\\lib\\distutils\\spawn.py',
   'PYMODULE'),
  ('distutils.errors',
   'C:\\Users\\vital\\AppData\\Local\\Programs\\Python\\Python39\\lib\\distutils\\errors.py',
   'PYMODULE'),
  ('distutils.sysconfig',
   'C:\\Users\\vital\\AppData\\Local\\Programs\\Python\\Python39\\lib\\distutils\\sysconfig.py',
   'PYMODULE'),
  ('distutils.text_file',
   'C:\\Users\\vital\\AppData\\Local\\Programs\\Python\\Python39\\lib\\distutils\\text_file.py',
   'PYMODULE'),
  ('platform',
   'C:\\Users\\vital\\AppData\\Local\\Programs\\Python\\Python39\\lib\\platform.py',
   'PYMODULE'),
  ('plistlib',
   'C:\\Users\\vital\\AppData\\Local\\Programs\\Python\\Python39\\lib\\plistlib.py',
   'PYMODULE'),
  ('pkgutil',
   'C:\\Users\\vital\\AppData\\Local\\Programs\\Python\\Python39\\lib\\pkgutil.py',
   'PYMODULE'),
  ('zipimport',
   'C:\\Users\\vital\\AppData\\Local\\Programs\\Python\\Python39\\lib\\zipimport.py',
   'PYMODULE'),
  ('runpy',
   'C:\\Users\\vital\\AppData\\Local\\Programs\\Python\\Python39\\lib\\runpy.py',
   'PYMODULE'),
  ('glob',
   'C:\\Users\\vital\\AppData\\Local\\Programs\\Python\\Python39\\lib\\glob.py',
   'PYMODULE'),
  ('code',
   'C:\\Users\\vital\\AppData\\Local\\Programs\\Python\\Python39\\lib\\code.py',
   'PYMODULE'),
  ('codeop',
   'C:\\Users\\vital\\AppData\\Local\\Programs\\Python\\Python39\\lib\\codeop.py',
   'PYMODULE'),
  ('dis',
   'C:\\Users\\vital\\AppData\\Local\\Programs\\Python\\Python39\\lib\\dis.py',
   'PYMODULE'),
  ('opcode',
   'C:\\Users\\vital\\AppData\\Local\\Programs\\Python\\Python39\\lib\\opcode.py',
   'PYMODULE'),
  ('bdb',
   'C:\\Users\\vital\\AppData\\Local\\Programs\\Python\\Python39\\lib\\bdb.py',
   'PYMODULE'),
  ('cmd',
   'C:\\Users\\vital\\AppData\\Local\\Programs\\Python\\Python39\\lib\\cmd.py',
   'PYMODULE'),
  ('inspect',
   'C:\\Users\\vital\\AppData\\Local\\Programs\\Python\\Python39\\lib\\inspect.py',
   'PYMODULE'),
  ('ast',
   'C:\\Users\\vital\\AppData\\Local\\Programs\\Python\\Python39\\lib\\ast.py',
   'PYMODULE'),
  ('difflib',
   'C:\\Users\\vital\\AppData\\Local\\Programs\\Python\\Python39\\lib\\difflib.py',
   'PYMODULE'),
  ('__future__',
   'C:\\Users\\vital\\AppData\\Local\\Programs\\Python\\Python39\\lib\\__future__.py',
   'PYMODULE'),
  ('_compat_pickle',
   'C:\\Users\\vital\\AppData\\Local\\Programs\\Python\\Python39\\lib\\_compat_pickle.py',
   'PYMODULE'),
  ('multiprocessing.process',
   'C:\\Users\\vital\\AppData\\Local\\Programs\\Python\\Python39\\lib\\multiprocessing\\process.py',
   'PYMODULE'),
  ('multiprocessing.context',
   'C:\\Users\\vital\\AppData\\Local\\Programs\\Python\\Python39\\lib\\multiprocessing\\context.py',
   'PYMODULE'),
  ('multiprocessing.popen_forkserver',
   'C:\\Users\\vital\\AppData\\Local\\Programs\\Python\\Python39\\lib\\multiprocessing\\popen_forkserver.py',
   'PYMODULE'),
  ('multiprocessing.sharedctypes',
   'C:\\Users\\vital\\AppData\\Local\\Programs\\Python\\Python39\\lib\\multiprocessing\\sharedctypes.py',
   'PYMODULE'),
  ('ctypes',
   'C:\\Users\\vital\\AppData\\Local\\Programs\\Python\\Python39\\lib\\ctypes\\__init__.py',
   'PYMODULE'),
  ('ctypes._endian',
   'C:\\Users\\vital\\AppData\\Local\\Programs\\Python\\Python39\\lib\\ctypes\\_endian.py',
   'PYMODULE'),
  ('multiprocessing.pool',
   'C:\\Users\\vital\\AppData\\Local\\Programs\\Python\\Python39\\lib\\multiprocessing\\pool.py',
   'PYMODULE'),
  ('multiprocessing.dummy',
   'C:\\Users\\vital\\AppData\\Local\\Programs\\Python\\Python39\\lib\\multiprocessing\\dummy\\__init__.py',
   'PYMODULE'),
  ('multiprocessing.dummy.connection',
   'C:\\Users\\vital\\AppData\\Local\\Programs\\Python\\Python39\\lib\\multiprocessing\\dummy\\connection.py',
   'PYMODULE'),
  ('multiprocessing.managers',
   'C:\\Users\\vital\\AppData\\Local\\Programs\\Python\\Python39\\lib\\multiprocessing\\managers.py',
   'PYMODULE'),
  ('multiprocessing.shared_memory',
   'C:\\Users\\vital\\AppData\\Local\\Programs\\Python\\Python39\\lib\\multiprocessing\\shared_memory.py',
   'PYMODULE'),
  ('secrets',
   'C:\\Users\\vital\\AppData\\Local\\Programs\\Python\\Python39\\lib\\secrets.py',
   'PYMODULE'),
  ('multiprocessing.reduction',
   'C:\\Users\\vital\\AppData\\Local\\Programs\\Python\\Python39\\lib\\multiprocessing\\reduction.py',
   'PYMODULE'),
  ('multiprocessing.popen_fork',
   'C:\\Users\\vital\\AppData\\Local\\Programs\\Python\\Python39\\lib\\multiprocessing\\popen_fork.py',
   'PYMODULE'),
  ('multiprocessing.popen_spawn_win32',
   'C:\\Users\\vital\\AppData\\Local\\Programs\\Python\\Python39\\lib\\multiprocessing\\popen_spawn_win32.py',
   'PYMODULE'),
  ('subprocess',
   'C:\\Users\\vital\\AppData\\Local\\Programs\\Python\\Python39\\lib\\subprocess.py',
   'PYMODULE'),
  ('multiprocessing.spawn',
   'C:\\Users\\vital\\AppData\\Local\\Programs\\Python\\Python39\\lib\\multiprocessing\\spawn.py',
   'PYMODULE'),
  ('multiprocessing',
   'C:\\Users\\vital\\AppData\\Local\\Programs\\Python\\Python39\\lib\\multiprocessing\\__init__.py',
   'PYMODULE'),
  ('tracemalloc',
   'C:\\Users\\vital\\AppData\\Local\\Programs\\Python\\Python39\\lib\\tracemalloc.py',
   'PYMODULE'),
  ('stringprep',
   'C:\\Users\\vital\\AppData\\Local\\Programs\\Python\\Python39\\lib\\stringprep.py',
   'PYMODULE'),
  ('_py_abc',
   'C:\\Users\\vital\\AppData\\Local\\Programs\\Python\\Python39\\lib\\_py_abc.py',
   'PYMODULE'),
  ('datetime',
   'C:\\Users\\vital\\AppData\\Local\\Programs\\Python\\Python39\\lib\\datetime.py',
   'PYMODULE'),
  ('_strptime',
   'C:\\Users\\vital\\AppData\\Local\\Programs\\Python\\Python39\\lib\\_strptime.py',
   'PYMODULE'),
  ('mainwindow',
   'C:\\Users\\vital\\Desktop\\artem\\project\\mainwindow.py',
   'PYMODULE'),
  ('PyQt5',
   'c:\\users\\vital\\desktop\\artem\\project\\venv\\lib\\site-packages\\PyQt5\\__init__.py',
   'PYMODULE'),
  ('database',
   'C:\\Users\\vital\\Desktop\\artem\\project\\database.py',
   'PYMODULE'),
  ('mysql.connector',
   'c:\\users\\vital\\desktop\\artem\\project\\venv\\lib\\site-packages\\mysql\\connector\\__init__.py',
   'PYMODULE'),
  ('mysql.connector.pooling',
   'c:\\users\\vital\\desktop\\artem\\project\\venv\\lib\\site-packages\\mysql\\connector\\pooling.py',
   'PYMODULE'),
  ('uuid',
   'C:\\Users\\vital\\AppData\\Local\\Programs\\Python\\Python39\\lib\\uuid.py',
   'PYMODULE'),
  ('mysql',
   'c:\\users\\vital\\desktop\\artem\\project\\venv\\lib\\site-packages\\mysql\\__init__.py',
   'PYMODULE'),
  ('mysql.connector.optionfiles',
   'c:\\users\\vital\\desktop\\artem\\project\\venv\\lib\\site-packages\\mysql\\connector\\optionfiles.py',
   'PYMODULE'),
  ('mysql.connector.catch23',
   'c:\\users\\vital\\desktop\\artem\\project\\venv\\lib\\site-packages\\mysql\\connector\\catch23.py',
   'PYMODULE'),
  ('mysql.connector.custom_types',
   'c:\\users\\vital\\desktop\\artem\\project\\venv\\lib\\site-packages\\mysql\\connector\\custom_types.py',
   'PYMODULE'),
  ('mysql.connector.dbapi',
   'c:\\users\\vital\\desktop\\artem\\project\\venv\\lib\\site-packages\\mysql\\connector\\dbapi.py',
   'PYMODULE'),
  ('mysql.connector.constants',
   'c:\\users\\vital\\desktop\\artem\\project\\venv\\lib\\site-packages\\mysql\\connector\\constants.py',
   'PYMODULE'),
  ('mysql.connector.charsets',
   'c:\\users\\vital\\desktop\\artem\\project\\venv\\lib\\site-packages\\mysql\\connector\\charsets.py',
   'PYMODULE'),
  ('mysql.connector.connection',
   'c:\\users\\vital\\desktop\\artem\\project\\venv\\lib\\site-packages\\mysql\\connector\\connection.py',
   'PYMODULE'),
  ('mysql.connector.abstracts',
   'c:\\users\\vital\\desktop\\artem\\project\\venv\\lib\\site-packages\\mysql\\connector\\abstracts.py',
   'PYMODULE'),
  ('mysql.connector.protocol',
   'c:\\users\\vital\\desktop\\artem\\project\\venv\\lib\\site-packages\\mysql\\connector\\protocol.py',
   'PYMODULE'),
  ('mysql.connector.network',
   'c:\\users\\vital\\desktop\\artem\\project\\venv\\lib\\site-packages\\mysql\\connector\\network.py',
   'PYMODULE'),
  ('mysql.connector.cursor',
   'c:\\users\\vital\\desktop\\artem\\project\\venv\\lib\\site-packages\\mysql\\connector\\cursor.py',
   'PYMODULE'),
  ('mysql.connector.conversion',
   'c:\\users\\vital\\desktop\\artem\\project\\venv\\lib\\site-packages\\mysql\\connector\\conversion.py',
   'PYMODULE'),
  ('mysql.connector.authentication',
   'c:\\users\\vital\\desktop\\artem\\project\\venv\\lib\\site-packages\\mysql\\connector\\authentication.py',
   'PYMODULE'),
  ('mysql.connector.connection_cext',
   'c:\\users\\vital\\desktop\\artem\\project\\venv\\lib\\site-packages\\mysql\\connector\\connection_cext.py',
   'PYMODULE'),
  ('mysql.connector.cursor_cext',
   'c:\\users\\vital\\desktop\\artem\\project\\venv\\lib\\site-packages\\mysql\\connector\\cursor_cext.py',
   'PYMODULE'),
  ('mysql.connector.version',
   'c:\\users\\vital\\desktop\\artem\\project\\venv\\lib\\site-packages\\mysql\\connector\\version.py',
   'PYMODULE'),
  ('mysql.connector.errors',
   'c:\\users\\vital\\desktop\\artem\\project\\venv\\lib\\site-packages\\mysql\\connector\\errors.py',
   'PYMODULE'),
  ('mysql.connector.locales',
   'c:\\users\\vital\\desktop\\artem\\project\\venv\\lib\\site-packages\\mysql\\connector\\locales\\__init__.py',
   'PYMODULE'),
  ('mysql.connector.errorcode',
   'c:\\users\\vital\\desktop\\artem\\project\\venv\\lib\\site-packages\\mysql\\connector\\errorcode.py',
   'PYMODULE'),
  ('mysql.connector.utils',
   'c:\\users\\vital\\desktop\\artem\\project\\venv\\lib\\site-packages\\mysql\\connector\\utils.py',
   'PYMODULE'),
  ('mainwindow_search',
   'C:\\Users\\vital\\Desktop\\artem\\project\\mainwindow_search.py',
   'PYMODULE'),
  ('firstwindow',
   'C:\\Users\\vital\\Desktop\\artem\\project\\firstwindow.py',
   'PYMODULE'),
  ('os',
   'C:\\Users\\vital\\AppData\\Local\\Programs\\Python\\Python39\\lib\\os.py',
   'PYMODULE')],
 [('PyQt5\\Qt\\plugins\\platforms\\qwindows.dll',
   'C:\\users\\vital\\desktop\\artem\\project\\venv\\lib\\site-packages\\PyQt5\\Qt\\plugins\\platforms\\qwindows.dll',
   'BINARY'),
  ('PyQt5\\Qt\\plugins\\styles\\qwindowsvistastyle.dll',
   'C:\\users\\vital\\desktop\\artem\\project\\venv\\lib\\site-packages\\PyQt5\\Qt\\plugins\\styles\\qwindowsvistastyle.dll',
   'BINARY'),
  ('PyQt5\\Qt\\plugins\\platforms\\qwebgl.dll',
   'C:\\users\\vital\\desktop\\artem\\project\\venv\\lib\\site-packages\\PyQt5\\Qt\\plugins\\platforms\\qwebgl.dll',
   'BINARY'),
  ('PyQt5\\Qt\\plugins\\imageformats\\qwbmp.dll',
   'C:\\users\\vital\\desktop\\artem\\project\\venv\\lib\\site-packages\\PyQt5\\Qt\\plugins\\imageformats\\qwbmp.dll',
   'BINARY'),
  ('opengl32sw.dll',
   'C:\\users\\vital\\desktop\\artem\\project\\venv\\lib\\site-packages\\PyQt5\\Qt\\bin\\opengl32sw.dll',
   'BINARY'),
  ('PyQt5\\Qt\\plugins\\platforms\\qoffscreen.dll',
   'C:\\users\\vital\\desktop\\artem\\project\\venv\\lib\\site-packages\\PyQt5\\Qt\\plugins\\platforms\\qoffscreen.dll',
   'BINARY'),
  ('PyQt5\\Qt\\plugins\\imageformats\\qico.dll',
   'C:\\users\\vital\\desktop\\artem\\project\\venv\\lib\\site-packages\\PyQt5\\Qt\\plugins\\imageformats\\qico.dll',
   'BINARY'),
  ('PyQt5\\Qt\\plugins\\imageformats\\qtiff.dll',
   'C:\\users\\vital\\desktop\\artem\\project\\venv\\lib\\site-packages\\PyQt5\\Qt\\plugins\\imageformats\\qtiff.dll',
   'BINARY'),
  ('libGLESv2.dll',
   'C:\\users\\vital\\desktop\\artem\\project\\venv\\lib\\site-packages\\PyQt5\\Qt\\bin\\libGLESv2.dll',
   'BINARY'),
  ('d3dcompiler_47.dll',
   'C:\\users\\vital\\desktop\\artem\\project\\venv\\lib\\site-packages\\PyQt5\\Qt\\bin\\d3dcompiler_47.dll',
   'BINARY'),
  ('PyQt5\\Qt\\plugins\\iconengines\\qsvgicon.dll',
   'C:\\users\\vital\\desktop\\artem\\project\\venv\\lib\\site-packages\\PyQt5\\Qt\\plugins\\iconengines\\qsvgicon.dll',
   'BINARY'),
  ('PyQt5\\Qt\\plugins\\imageformats\\qgif.dll',
   'C:\\users\\vital\\desktop\\artem\\project\\venv\\lib\\site-packages\\PyQt5\\Qt\\plugins\\imageformats\\qgif.dll',
   'BINARY'),
  ('PyQt5\\Qt\\plugins\\imageformats\\qtga.dll',
   'C:\\users\\vital\\desktop\\artem\\project\\venv\\lib\\site-packages\\PyQt5\\Qt\\plugins\\imageformats\\qtga.dll',
   'BINARY'),
  ('libEGL.dll',
   'C:\\users\\vital\\desktop\\artem\\project\\venv\\lib\\site-packages\\PyQt5\\Qt\\bin\\libEGL.dll',
   'BINARY'),
  ('PyQt5\\Qt\\plugins\\imageformats\\qsvg.dll',
   'C:\\users\\vital\\desktop\\artem\\project\\venv\\lib\\site-packages\\PyQt5\\Qt\\plugins\\imageformats\\qsvg.dll',
   'BINARY'),
  ('PyQt5\\Qt\\plugins\\imageformats\\qjpeg.dll',
   'C:\\users\\vital\\desktop\\artem\\project\\venv\\lib\\site-packages\\PyQt5\\Qt\\plugins\\imageformats\\qjpeg.dll',
   'BINARY'),
  ('PyQt5\\Qt\\plugins\\platforms\\qminimal.dll',
   'C:\\users\\vital\\desktop\\artem\\project\\venv\\lib\\site-packages\\PyQt5\\Qt\\plugins\\platforms\\qminimal.dll',
   'BINARY'),
  ('PyQt5\\Qt\\plugins\\imageformats\\qwebp.dll',
   'C:\\users\\vital\\desktop\\artem\\project\\venv\\lib\\site-packages\\PyQt5\\Qt\\plugins\\imageformats\\qwebp.dll',
   'BINARY'),
  ('PyQt5\\Qt\\plugins\\platformthemes\\qxdgdesktopportal.dll',
   'C:\\users\\vital\\desktop\\artem\\project\\venv\\lib\\site-packages\\PyQt5\\Qt\\plugins\\platformthemes\\qxdgdesktopportal.dll',
   'BINARY'),
  ('PyQt5\\Qt\\plugins\\imageformats\\qicns.dll',
   'C:\\users\\vital\\desktop\\artem\\project\\venv\\lib\\site-packages\\PyQt5\\Qt\\plugins\\imageformats\\qicns.dll',
   'BINARY'),
  ('_multiprocessing',
   'C:\\Users\\vital\\AppData\\Local\\Programs\\Python\\Python39\\DLLs\\_multiprocessing.pyd',
   'EXTENSION'),
  ('pyexpat',
   'C:\\Users\\vital\\AppData\\Local\\Programs\\Python\\Python39\\DLLs\\pyexpat.pyd',
   'EXTENSION'),
  ('_ssl',
   'C:\\Users\\vital\\AppData\\Local\\Programs\\Python\\Python39\\DLLs\\_ssl.pyd',
   'EXTENSION'),
  ('_hashlib',
   'C:\\Users\\vital\\AppData\\Local\\Programs\\Python\\Python39\\DLLs\\_hashlib.pyd',
   'EXTENSION'),
  ('unicodedata',
   'C:\\Users\\vital\\AppData\\Local\\Programs\\Python\\Python39\\DLLs\\unicodedata.pyd',
   'EXTENSION'),
  ('_decimal',
   'C:\\Users\\vital\\AppData\\Local\\Programs\\Python\\Python39\\DLLs\\_decimal.pyd',
   'EXTENSION'),
  ('_socket',
   'C:\\Users\\vital\\AppData\\Local\\Programs\\Python\\Python39\\DLLs\\_socket.pyd',
   'EXTENSION'),
  ('select',
   'C:\\Users\\vital\\AppData\\Local\\Programs\\Python\\Python39\\DLLs\\select.pyd',
   'EXTENSION'),
  ('_lzma',
   'C:\\Users\\vital\\AppData\\Local\\Programs\\Python\\Python39\\DLLs\\_lzma.pyd',
   'EXTENSION'),
  ('_bz2',
   'C:\\Users\\vital\\AppData\\Local\\Programs\\Python\\Python39\\DLLs\\_bz2.pyd',
   'EXTENSION'),
  ('_overlapped',
   'C:\\Users\\vital\\AppData\\Local\\Programs\\Python\\Python39\\DLLs\\_overlapped.pyd',
   'EXTENSION'),
  ('_asyncio',
   'C:\\Users\\vital\\AppData\\Local\\Programs\\Python\\Python39\\DLLs\\_asyncio.pyd',
   'EXTENSION'),
  ('_queue',
   'C:\\Users\\vital\\AppData\\Local\\Programs\\Python\\Python39\\DLLs\\_queue.pyd',
   'EXTENSION'),
  ('_ctypes',
   'C:\\Users\\vital\\AppData\\Local\\Programs\\Python\\Python39\\DLLs\\_ctypes.pyd',
   'EXTENSION'),
  ('PyQt5.QtWidgets',
   'c:\\users\\vital\\desktop\\artem\\project\\venv\\lib\\site-packages\\PyQt5\\QtWidgets.pyd',
   'EXTENSION'),
  ('PyQt5.QtGui',
   'c:\\users\\vital\\desktop\\artem\\project\\venv\\lib\\site-packages\\PyQt5\\QtGui.pyd',
   'EXTENSION'),
  ('PyQt5.QtCore',
   'c:\\users\\vital\\desktop\\artem\\project\\venv\\lib\\site-packages\\PyQt5\\QtCore.pyd',
   'EXTENSION'),
  ('PyQt5.sip',
   'c:\\users\\vital\\desktop\\artem\\project\\venv\\lib\\site-packages\\PyQt5\\sip.cp39-win_amd64.pyd',
   'EXTENSION'),
  ('_uuid',
   'C:\\Users\\vital\\AppData\\Local\\Programs\\Python\\Python39\\DLLs\\_uuid.pyd',
   'EXTENSION'),
  ('VCRUNTIME140.dll',
   'C:\\Users\\vital\\AppData\\Local\\Programs\\Python\\Python39\\VCRUNTIME140.dll',
   'BINARY'),
  ('Qt5Gui.dll',
   'c:\\users\\vital\\desktop\\artem\\project\\venv\\lib\\site-packages\\PyQt5\\Qt\\bin\\Qt5Gui.dll',
   'BINARY'),
  ('Qt5Core.dll',
   'c:\\users\\vital\\desktop\\artem\\project\\venv\\lib\\site-packages\\PyQt5\\Qt\\bin\\Qt5Core.dll',
   'BINARY'),
  ('VCRUNTIME140_1.dll',
   'C:\\Users\\vital\\AppData\\Local\\Programs\\Python\\Python39\\VCRUNTIME140_1.dll',
   'BINARY'),
  ('Qt5Widgets.dll',
   'c:\\users\\vital\\desktop\\artem\\project\\venv\\lib\\site-packages\\PyQt5\\Qt\\bin\\Qt5Widgets.dll',
   'BINARY'),
  ('Qt5Quick.dll',
   'c:\\users\\vital\\desktop\\artem\\project\\venv\\lib\\site-packages\\PyQt5\\Qt\\bin\\Qt5Quick.dll',
   'BINARY'),
  ('Qt5WebSockets.dll',
   'c:\\users\\vital\\desktop\\artem\\project\\venv\\lib\\site-packages\\PyQt5\\Qt\\bin\\Qt5WebSockets.dll',
   'BINARY'),
  ('Qt5Network.dll',
   'c:\\users\\vital\\desktop\\artem\\project\\venv\\lib\\site-packages\\PyQt5\\Qt\\bin\\Qt5Network.dll',
   'BINARY'),
  ('MSVCP140.dll',
   'C:\\users\\vital\\desktop\\artem\\project\\venv\\lib\\site-packages\\PyQt5\\Qt\\bin\\MSVCP140.dll',
   'BINARY'),
  ('Qt5Svg.dll',
   'c:\\users\\vital\\desktop\\artem\\project\\venv\\lib\\site-packages\\PyQt5\\Qt\\bin\\Qt5Svg.dll',
   'BINARY'),
  ('Qt5DBus.dll',
   'c:\\users\\vital\\desktop\\artem\\project\\venv\\lib\\site-packages\\PyQt5\\Qt\\bin\\Qt5DBus.dll',
   'BINARY'),
  ('python39.dll',
   'C:\\Users\\vital\\AppData\\Local\\Programs\\Python\\Python39\\python39.dll',
   'BINARY'),
  ('libcrypto-1_1.dll',
   'C:\\Users\\vital\\AppData\\Local\\Programs\\Python\\Python39\\DLLs\\libcrypto-1_1.dll',
   'BINARY'),
  ('libssl-1_1.dll',
   'C:\\Users\\vital\\AppData\\Local\\Programs\\Python\\Python39\\DLLs\\libssl-1_1.dll',
   'BINARY'),
  ('libffi-7.dll',
   'C:\\Users\\vital\\AppData\\Local\\Programs\\Python\\Python39\\DLLs\\libffi-7.dll',
   'BINARY'),
  ('python3.dll',
   'C:\\Users\\vital\\AppData\\Local\\Programs\\Python\\Python39\\python3.dll',
   'BINARY'),
  ('MSVCP140_1.dll',
   'c:\\users\\vital\\desktop\\artem\\project\\venv\\lib\\site-packages\\PyQt5\\Qt\\bin\\MSVCP140_1.dll',
   'BINARY'),
  ('Qt5Qml.dll',
   'c:\\users\\vital\\desktop\\artem\\project\\venv\\lib\\site-packages\\PyQt5\\Qt\\bin\\Qt5Qml.dll',
   'BINARY'),
  ('Qt5QmlModels.dll',
   'c:\\users\\vital\\desktop\\artem\\project\\venv\\lib\\site-packages\\PyQt5\\Qt\\bin\\Qt5QmlModels.dll',
   'BINARY')],
 [],
 [],
 [('base_library.zip',
   'C:\\Users\\vital\\Desktop\\artem\\project\\build\\main\\base_library.zip',
   'DATA'),
  ('PyQt5\\Qt\\translations\\qtbase_es.qm',
   'C:\\users\\vital\\desktop\\artem\\project\\venv\\lib\\site-packages\\PyQt5\\Qt\\translations\\qtbase_es.qm',
   'DATA'),
  ('PyQt5\\Qt\\translations\\qtbase_fi.qm',
   'C:\\users\\vital\\desktop\\artem\\project\\venv\\lib\\site-packages\\PyQt5\\Qt\\translations\\qtbase_fi.qm',
   'DATA'),
  ('PyQt5\\Qt\\translations\\qtbase_bg.qm',
   'C:\\users\\vital\\desktop\\artem\\project\\venv\\lib\\site-packages\\PyQt5\\Qt\\translations\\qtbase_bg.qm',
   'DATA'),
  ('PyQt5\\Qt\\translations\\qtbase_uk.qm',
   'C:\\users\\vital\\desktop\\artem\\project\\venv\\lib\\site-packages\\PyQt5\\Qt\\translations\\qtbase_uk.qm',
   'DATA'),
  ('PyQt5\\Qt\\translations\\qtbase_ca.qm',
   'C:\\users\\vital\\desktop\\artem\\project\\venv\\lib\\site-packages\\PyQt5\\Qt\\translations\\qtbase_ca.qm',
   'DATA'),
  ('PyQt5\\Qt\\translations\\qtbase_ar.qm',
   'C:\\users\\vital\\desktop\\artem\\project\\venv\\lib\\site-packages\\PyQt5\\Qt\\translations\\qtbase_ar.qm',
   'DATA'),
  ('PyQt5\\Qt\\translations\\qtbase_cs.qm',
   'C:\\users\\vital\\desktop\\artem\\project\\venv\\lib\\site-packages\\PyQt5\\Qt\\translations\\qtbase_cs.qm',
   'DATA'),
  ('Include\\pyconfig.h',
   'C:\\Users\\vital\\AppData\\Local\\Programs\\Python\\Python39\\Include\\pyconfig.h',
   'DATA'),
  ('PyQt5\\Qt\\translations\\qtbase_da.qm',
   'C:\\users\\vital\\desktop\\artem\\project\\venv\\lib\\site-packages\\PyQt5\\Qt\\translations\\qtbase_da.qm',
   'DATA'),
  ('PyQt5\\Qt\\translations\\qtbase_en.qm',
   'C:\\users\\vital\\desktop\\artem\\project\\venv\\lib\\site-packages\\PyQt5\\Qt\\translations\\qtbase_en.qm',
   'DATA'),
  ('PyQt5\\Qt\\translations\\qtbase_he.qm',
   'C:\\users\\vital\\desktop\\artem\\project\\venv\\lib\\site-packages\\PyQt5\\Qt\\translations\\qtbase_he.qm',
   'DATA'),
  ('PyQt5\\Qt\\translations\\qtbase_ru.qm',
   'C:\\users\\vital\\desktop\\artem\\project\\venv\\lib\\site-packages\\PyQt5\\Qt\\translations\\qtbase_ru.qm',
   'DATA'),
  ('PyQt5\\Qt\\translations\\qtbase_fr.qm',
   'C:\\users\\vital\\desktop\\artem\\project\\venv\\lib\\site-packages\\PyQt5\\Qt\\translations\\qtbase_fr.qm',
   'DATA'),
  ('PyQt5\\Qt\\translations\\qtbase_lv.qm',
   'C:\\users\\vital\\desktop\\artem\\project\\venv\\lib\\site-packages\\PyQt5\\Qt\\translations\\qtbase_lv.qm',
   'DATA'),
  ('PyQt5\\Qt\\translations\\qtbase_pl.qm',
   'C:\\users\\vital\\desktop\\artem\\project\\venv\\lib\\site-packages\\PyQt5\\Qt\\translations\\qtbase_pl.qm',
   'DATA'),
  ('PyQt5\\Qt\\translations\\qtbase_tr.qm',
   'C:\\users\\vital\\desktop\\artem\\project\\venv\\lib\\site-packages\\PyQt5\\Qt\\translations\\qtbase_tr.qm',
   'DATA'),
  ('PyQt5\\Qt\\translations\\qtbase_gd.qm',
   'C:\\users\\vital\\desktop\\artem\\project\\venv\\lib\\site-packages\\PyQt5\\Qt\\translations\\qtbase_gd.qm',
   'DATA'),
  ('PyQt5\\Qt\\translations\\qtbase_zh_TW.qm',
   'C:\\users\\vital\\desktop\\artem\\project\\venv\\lib\\site-packages\\PyQt5\\Qt\\translations\\qtbase_zh_TW.qm',
   'DATA'),
  ('PyQt5\\Qt\\translations\\qtbase_ja.qm',
   'C:\\users\\vital\\desktop\\artem\\project\\venv\\lib\\site-packages\\PyQt5\\Qt\\translations\\qtbase_ja.qm',
   'DATA'),
  ('PyQt5\\Qt\\translations\\qtbase_hu.qm',
   'C:\\users\\vital\\desktop\\artem\\project\\venv\\lib\\site-packages\\PyQt5\\Qt\\translations\\qtbase_hu.qm',
   'DATA'),
  ('PyQt5\\Qt\\translations\\qtbase_it.qm',
   'C:\\users\\vital\\desktop\\artem\\project\\venv\\lib\\site-packages\\PyQt5\\Qt\\translations\\qtbase_it.qm',
   'DATA'),
  ('PyQt5\\Qt\\translations\\qtbase_sk.qm',
   'C:\\users\\vital\\desktop\\artem\\project\\venv\\lib\\site-packages\\PyQt5\\Qt\\translations\\qtbase_sk.qm',
   'DATA'),
  ('PyQt5\\Qt\\translations\\qtbase_ko.qm',
   'C:\\users\\vital\\desktop\\artem\\project\\venv\\lib\\site-packages\\PyQt5\\Qt\\translations\\qtbase_ko.qm',
   'DATA'),
  ('PyQt5\\Qt\\translations\\qtbase_de.qm',
   'C:\\users\\vital\\desktop\\artem\\project\\venv\\lib\\site-packages\\PyQt5\\Qt\\translations\\qtbase_de.qm',
   'DATA')],
 [])
