('C:\\Users\\vital\\Desktop\\artem\\project\\dist\\main.exe',
 False,
 False,
 False,
 'C:\\Users\\vital\\Desktop\\artem\\project\\icon.ico',
 None,
 False,
 False,
 '<?xml version="1.0" encoding="UTF-8" standalone="yes"?><assembly xmlns="urn:schemas-microsoft-com:asm.v1" manifestVersion="1.0"><assemblyIdentity type="win32" name="main" processorArchitecture="amd64" version="1.0.0.0"/><trustInfo xmlns="urn:schemas-microsoft-com:asm.v3"><security><requestedPrivileges><requestedExecutionLevel level="asInvoker" uiAccess="false"/></requestedPrivileges></security></trustInfo><dependency><dependentAssembly><assemblyIdentity type="win32" name="Microsoft.Windows.Common-Controls" language="*" processorArchitecture="*" version="6.0.0.0" publicKeyToken="6595b64144ccf1df"/><compatibility xmlns="urn:schemas-microsoft-com:compatibility.v1"/></dependentAssembly></dependency><compatibility xmlns="urn:schemas-microsoft-com:compatibility.v1"><application><supportedOS Id="{e2011457-1546-43c5-a5fe-008deee3d3f0}"/><supportedOS Id="{35138b9a-5d96-4fbd-8e2d-a2440225f93a}"/><supportedOS Id="{4a2f28e3-53b9-4441-ba9c-d69d4a4a6e38}"/><supportedOS Id="{1f676c76-80e1-4239-95bb-83d0f6d0da78}"/><supportedOS Id="{8e0f7a12-bfb3-4fe8-b9a5-48fd50a15a9a}"/></application></compatibility></assembly>',
 True,
 'main.pkg',
 [('PYZ-00.pyz',
   'C:\\Users\\vital\\Desktop\\artem\\project\\build\\main\\PYZ-00.pyz',
   'PYZ'),
  ('struct',
   'C:\\Users\\vital\\AppData\\Local\\Programs\\Python\\Python39\\lib\\struct.pyo',
   'PYMODULE'),
  ('pyimod01_os_path',
   'c:\\users\\vital\\desktop\\artem\\project\\venv\\lib\\site-packages\\PyInstaller\\loader\\pyimod01_os_path.pyc',
   'PYMODULE'),
  ('pyimod02_archive',
   'c:\\users\\vital\\desktop\\artem\\project\\venv\\lib\\site-packages\\PyInstaller\\loader\\pyimod02_archive.pyc',
   'PYMODULE'),
  ('pyimod03_importers',
   'c:\\users\\vital\\desktop\\artem\\project\\venv\\lib\\site-packages\\PyInstaller\\loader\\pyimod03_importers.pyc',
   'PYMODULE'),
  ('pyiboot01_bootstrap',
   'c:\\users\\vital\\desktop\\artem\\project\\venv\\lib\\site-packages\\PyInstaller\\loader\\pyiboot01_bootstrap.py',
   'PYSOURCE'),
  ('pyi_rth_multiprocessing',
   'C:\\Users\\vital\\Desktop\\artem\\project\\venv\\Lib\\site-packages\\PyInstaller\\hooks\\rthooks\\pyi_rth_multiprocessing.py',
   'PYSOURCE'),
  ('pyi_rth_pyqt5',
   'C:\\Users\\vital\\Desktop\\artem\\project\\venv\\Lib\\site-packages\\PyInstaller\\hooks\\rthooks\\pyi_rth_pyqt5.py',
   'PYSOURCE'),
  ('main', 'C:\\Users\\vital\\Desktop\\artem\\project\\main.py', 'PYSOURCE'),
  ('PyQt5\\Qt\\plugins\\platforms\\qwindows.dll',
   'C:\\users\\vital\\desktop\\artem\\project\\venv\\lib\\site-packages\\PyQt5\\Qt\\plugins\\platforms\\qwindows.dll',
   'BINARY'),
  ('PyQt5\\Qt\\plugins\\styles\\qwindowsvistastyle.dll',
   'C:\\users\\vital\\desktop\\artem\\project\\venv\\lib\\site-packages\\PyQt5\\Qt\\plugins\\styles\\qwindowsvistastyle.dll',
   'BINARY'),
  ('PyQt5\\Qt\\plugins\\platforms\\qwebgl.dll',
   'C:\\users\\vital\\desktop\\artem\\project\\venv\\lib\\site-packages\\PyQt5\\Qt\\plugins\\platforms\\qwebgl.dll',
   'BINARY'),
  ('PyQt5\\Qt\\plugins\\imageformats\\qwbmp.dll',
   'C:\\users\\vital\\desktop\\artem\\project\\venv\\lib\\site-packages\\PyQt5\\Qt\\plugins\\imageformats\\qwbmp.dll',
   'BINARY'),
  ('opengl32sw.dll',
   'C:\\users\\vital\\desktop\\artem\\project\\venv\\lib\\site-packages\\PyQt5\\Qt\\bin\\opengl32sw.dll',
   'BINARY'),
  ('PyQt5\\Qt\\plugins\\platforms\\qoffscreen.dll',
   'C:\\users\\vital\\desktop\\artem\\project\\venv\\lib\\site-packages\\PyQt5\\Qt\\plugins\\platforms\\qoffscreen.dll',
   'BINARY'),
  ('PyQt5\\Qt\\plugins\\imageformats\\qico.dll',
   'C:\\users\\vital\\desktop\\artem\\project\\venv\\lib\\site-packages\\PyQt5\\Qt\\plugins\\imageformats\\qico.dll',
   'BINARY'),
  ('PyQt5\\Qt\\plugins\\imageformats\\qtiff.dll',
   'C:\\users\\vital\\desktop\\artem\\project\\venv\\lib\\site-packages\\PyQt5\\Qt\\plugins\\imageformats\\qtiff.dll',
   'BINARY'),
  ('libGLESv2.dll',
   'C:\\users\\vital\\desktop\\artem\\project\\venv\\lib\\site-packages\\PyQt5\\Qt\\bin\\libGLESv2.dll',
   'BINARY'),
  ('d3dcompiler_47.dll',
   'C:\\users\\vital\\desktop\\artem\\project\\venv\\lib\\site-packages\\PyQt5\\Qt\\bin\\d3dcompiler_47.dll',
   'BINARY'),
  ('PyQt5\\Qt\\plugins\\iconengines\\qsvgicon.dll',
   'C:\\users\\vital\\desktop\\artem\\project\\venv\\lib\\site-packages\\PyQt5\\Qt\\plugins\\iconengines\\qsvgicon.dll',
   'BINARY'),
  ('PyQt5\\Qt\\plugins\\imageformats\\qgif.dll',
   'C:\\users\\vital\\desktop\\artem\\project\\venv\\lib\\site-packages\\PyQt5\\Qt\\plugins\\imageformats\\qgif.dll',
   'BINARY'),
  ('PyQt5\\Qt\\plugins\\imageformats\\qtga.dll',
   'C:\\users\\vital\\desktop\\artem\\project\\venv\\lib\\site-packages\\PyQt5\\Qt\\plugins\\imageformats\\qtga.dll',
   'BINARY'),
  ('libEGL.dll',
   'C:\\users\\vital\\desktop\\artem\\project\\venv\\lib\\site-packages\\PyQt5\\Qt\\bin\\libEGL.dll',
   'BINARY'),
  ('PyQt5\\Qt\\plugins\\imageformats\\qsvg.dll',
   'C:\\users\\vital\\desktop\\artem\\project\\venv\\lib\\site-packages\\PyQt5\\Qt\\plugins\\imageformats\\qsvg.dll',
   'BINARY'),
  ('PyQt5\\Qt\\plugins\\imageformats\\qjpeg.dll',
   'C:\\users\\vital\\desktop\\artem\\project\\venv\\lib\\site-packages\\PyQt5\\Qt\\plugins\\imageformats\\qjpeg.dll',
   'BINARY'),
  ('PyQt5\\Qt\\plugins\\platforms\\qminimal.dll',
   'C:\\users\\vital\\desktop\\artem\\project\\venv\\lib\\site-packages\\PyQt5\\Qt\\plugins\\platforms\\qminimal.dll',
   'BINARY'),
  ('PyQt5\\Qt\\plugins\\imageformats\\qwebp.dll',
   'C:\\users\\vital\\desktop\\artem\\project\\venv\\lib\\site-packages\\PyQt5\\Qt\\plugins\\imageformats\\qwebp.dll',
   'BINARY'),
  ('PyQt5\\Qt\\plugins\\platformthemes\\qxdgdesktopportal.dll',
   'C:\\users\\vital\\desktop\\artem\\project\\venv\\lib\\site-packages\\PyQt5\\Qt\\plugins\\platformthemes\\qxdgdesktopportal.dll',
   'BINARY'),
  ('PyQt5\\Qt\\plugins\\imageformats\\qicns.dll',
   'C:\\users\\vital\\desktop\\artem\\project\\venv\\lib\\site-packages\\PyQt5\\Qt\\plugins\\imageformats\\qicns.dll',
   'BINARY'),
  ('_multiprocessing',
   'C:\\Users\\vital\\AppData\\Local\\Programs\\Python\\Python39\\DLLs\\_multiprocessing.pyd',
   'EXTENSION'),
  ('pyexpat',
   'C:\\Users\\vital\\AppData\\Local\\Programs\\Python\\Python39\\DLLs\\pyexpat.pyd',
   'EXTENSION'),
  ('_ssl',
   'C:\\Users\\vital\\AppData\\Local\\Programs\\Python\\Python39\\DLLs\\_ssl.pyd',
   'EXTENSION'),
  ('_hashlib',
   'C:\\Users\\vital\\AppData\\Local\\Programs\\Python\\Python39\\DLLs\\_hashlib.pyd',
   'EXTENSION'),
  ('unicodedata',
   'C:\\Users\\vital\\AppData\\Local\\Programs\\Python\\Python39\\DLLs\\unicodedata.pyd',
   'EXTENSION'),
  ('_decimal',
   'C:\\Users\\vital\\AppData\\Local\\Programs\\Python\\Python39\\DLLs\\_decimal.pyd',
   'EXTENSION'),
  ('_socket',
   'C:\\Users\\vital\\AppData\\Local\\Programs\\Python\\Python39\\DLLs\\_socket.pyd',
   'EXTENSION'),
  ('select',
   'C:\\Users\\vital\\AppData\\Local\\Programs\\Python\\Python39\\DLLs\\select.pyd',
   'EXTENSION'),
  ('_lzma',
   'C:\\Users\\vital\\AppData\\Local\\Programs\\Python\\Python39\\DLLs\\_lzma.pyd',
   'EXTENSION'),
  ('_bz2',
   'C:\\Users\\vital\\AppData\\Local\\Programs\\Python\\Python39\\DLLs\\_bz2.pyd',
   'EXTENSION'),
  ('_overlapped',
   'C:\\Users\\vital\\AppData\\Local\\Programs\\Python\\Python39\\DLLs\\_overlapped.pyd',
   'EXTENSION'),
  ('_asyncio',
   'C:\\Users\\vital\\AppData\\Local\\Programs\\Python\\Python39\\DLLs\\_asyncio.pyd',
   'EXTENSION'),
  ('_queue',
   'C:\\Users\\vital\\AppData\\Local\\Programs\\Python\\Python39\\DLLs\\_queue.pyd',
   'EXTENSION'),
  ('_ctypes',
   'C:\\Users\\vital\\AppData\\Local\\Programs\\Python\\Python39\\DLLs\\_ctypes.pyd',
   'EXTENSION'),
  ('PyQt5.QtWidgets',
   'c:\\users\\vital\\desktop\\artem\\project\\venv\\lib\\site-packages\\PyQt5\\QtWidgets.pyd',
   'EXTENSION'),
  ('PyQt5.QtGui',
   'c:\\users\\vital\\desktop\\artem\\project\\venv\\lib\\site-packages\\PyQt5\\QtGui.pyd',
   'EXTENSION'),
  ('PyQt5.QtCore',
   'c:\\users\\vital\\desktop\\artem\\project\\venv\\lib\\site-packages\\PyQt5\\QtCore.pyd',
   'EXTENSION'),
  ('PyQt5.sip',
   'c:\\users\\vital\\desktop\\artem\\project\\venv\\lib\\site-packages\\PyQt5\\sip.cp39-win_amd64.pyd',
   'EXTENSION'),
  ('_uuid',
   'C:\\Users\\vital\\AppData\\Local\\Programs\\Python\\Python39\\DLLs\\_uuid.pyd',
   'EXTENSION'),
  ('VCRUNTIME140.dll',
   'C:\\Users\\vital\\AppData\\Local\\Programs\\Python\\Python39\\VCRUNTIME140.dll',
   'BINARY'),
  ('Qt5Gui.dll',
   'c:\\users\\vital\\desktop\\artem\\project\\venv\\lib\\site-packages\\PyQt5\\Qt\\bin\\Qt5Gui.dll',
   'BINARY'),
  ('Qt5Core.dll',
   'c:\\users\\vital\\desktop\\artem\\project\\venv\\lib\\site-packages\\PyQt5\\Qt\\bin\\Qt5Core.dll',
   'BINARY'),
  ('VCRUNTIME140_1.dll',
   'C:\\Users\\vital\\AppData\\Local\\Programs\\Python\\Python39\\VCRUNTIME140_1.dll',
   'BINARY'),
  ('Qt5Widgets.dll',
   'c:\\users\\vital\\desktop\\artem\\project\\venv\\lib\\site-packages\\PyQt5\\Qt\\bin\\Qt5Widgets.dll',
   'BINARY'),
  ('Qt5Quick.dll',
   'c:\\users\\vital\\desktop\\artem\\project\\venv\\lib\\site-packages\\PyQt5\\Qt\\bin\\Qt5Quick.dll',
   'BINARY'),
  ('Qt5WebSockets.dll',
   'c:\\users\\vital\\desktop\\artem\\project\\venv\\lib\\site-packages\\PyQt5\\Qt\\bin\\Qt5WebSockets.dll',
   'BINARY'),
  ('Qt5Network.dll',
   'c:\\users\\vital\\desktop\\artem\\project\\venv\\lib\\site-packages\\PyQt5\\Qt\\bin\\Qt5Network.dll',
   'BINARY'),
  ('MSVCP140.dll',
   'C:\\users\\vital\\desktop\\artem\\project\\venv\\lib\\site-packages\\PyQt5\\Qt\\bin\\MSVCP140.dll',
   'BINARY'),
  ('Qt5Svg.dll',
   'c:\\users\\vital\\desktop\\artem\\project\\venv\\lib\\site-packages\\PyQt5\\Qt\\bin\\Qt5Svg.dll',
   'BINARY'),
  ('Qt5DBus.dll',
   'c:\\users\\vital\\desktop\\artem\\project\\venv\\lib\\site-packages\\PyQt5\\Qt\\bin\\Qt5DBus.dll',
   'BINARY'),
  ('python39.dll',
   'C:\\Users\\vital\\AppData\\Local\\Programs\\Python\\Python39\\python39.dll',
   'BINARY'),
  ('libcrypto-1_1.dll',
   'C:\\Users\\vital\\AppData\\Local\\Programs\\Python\\Python39\\DLLs\\libcrypto-1_1.dll',
   'BINARY'),
  ('libssl-1_1.dll',
   'C:\\Users\\vital\\AppData\\Local\\Programs\\Python\\Python39\\DLLs\\libssl-1_1.dll',
   'BINARY'),
  ('libffi-7.dll',
   'C:\\Users\\vital\\AppData\\Local\\Programs\\Python\\Python39\\DLLs\\libffi-7.dll',
   'BINARY'),
  ('python3.dll',
   'C:\\Users\\vital\\AppData\\Local\\Programs\\Python\\Python39\\python3.dll',
   'BINARY'),
  ('MSVCP140_1.dll',
   'c:\\users\\vital\\desktop\\artem\\project\\venv\\lib\\site-packages\\PyQt5\\Qt\\bin\\MSVCP140_1.dll',
   'BINARY'),
  ('Qt5Qml.dll',
   'c:\\users\\vital\\desktop\\artem\\project\\venv\\lib\\site-packages\\PyQt5\\Qt\\bin\\Qt5Qml.dll',
   'BINARY'),
  ('Qt5QmlModels.dll',
   'c:\\users\\vital\\desktop\\artem\\project\\venv\\lib\\site-packages\\PyQt5\\Qt\\bin\\Qt5QmlModels.dll',
   'BINARY'),
  ('base_library.zip',
   'C:\\Users\\vital\\Desktop\\artem\\project\\build\\main\\base_library.zip',
   'DATA'),
  ('PyQt5\\Qt\\translations\\qtbase_es.qm',
   'C:\\users\\vital\\desktop\\artem\\project\\venv\\lib\\site-packages\\PyQt5\\Qt\\translations\\qtbase_es.qm',
   'DATA'),
  ('PyQt5\\Qt\\translations\\qtbase_fi.qm',
   'C:\\users\\vital\\desktop\\artem\\project\\venv\\lib\\site-packages\\PyQt5\\Qt\\translations\\qtbase_fi.qm',
   'DATA'),
  ('PyQt5\\Qt\\translations\\qtbase_bg.qm',
   'C:\\users\\vital\\desktop\\artem\\project\\venv\\lib\\site-packages\\PyQt5\\Qt\\translations\\qtbase_bg.qm',
   'DATA'),
  ('PyQt5\\Qt\\translations\\qtbase_uk.qm',
   'C:\\users\\vital\\desktop\\artem\\project\\venv\\lib\\site-packages\\PyQt5\\Qt\\translations\\qtbase_uk.qm',
   'DATA'),
  ('PyQt5\\Qt\\translations\\qtbase_ca.qm',
   'C:\\users\\vital\\desktop\\artem\\project\\venv\\lib\\site-packages\\PyQt5\\Qt\\translations\\qtbase_ca.qm',
   'DATA'),
  ('PyQt5\\Qt\\translations\\qtbase_ar.qm',
   'C:\\users\\vital\\desktop\\artem\\project\\venv\\lib\\site-packages\\PyQt5\\Qt\\translations\\qtbase_ar.qm',
   'DATA'),
  ('PyQt5\\Qt\\translations\\qtbase_cs.qm',
   'C:\\users\\vital\\desktop\\artem\\project\\venv\\lib\\site-packages\\PyQt5\\Qt\\translations\\qtbase_cs.qm',
   'DATA'),
  ('Include\\pyconfig.h',
   'C:\\Users\\vital\\AppData\\Local\\Programs\\Python\\Python39\\Include\\pyconfig.h',
   'DATA'),
  ('PyQt5\\Qt\\translations\\qtbase_da.qm',
   'C:\\users\\vital\\desktop\\artem\\project\\venv\\lib\\site-packages\\PyQt5\\Qt\\translations\\qtbase_da.qm',
   'DATA'),
  ('PyQt5\\Qt\\translations\\qtbase_en.qm',
   'C:\\users\\vital\\desktop\\artem\\project\\venv\\lib\\site-packages\\PyQt5\\Qt\\translations\\qtbase_en.qm',
   'DATA'),
  ('PyQt5\\Qt\\translations\\qtbase_he.qm',
   'C:\\users\\vital\\desktop\\artem\\project\\venv\\lib\\site-packages\\PyQt5\\Qt\\translations\\qtbase_he.qm',
   'DATA'),
  ('PyQt5\\Qt\\translations\\qtbase_ru.qm',
   'C:\\users\\vital\\desktop\\artem\\project\\venv\\lib\\site-packages\\PyQt5\\Qt\\translations\\qtbase_ru.qm',
   'DATA'),
  ('PyQt5\\Qt\\translations\\qtbase_fr.qm',
   'C:\\users\\vital\\desktop\\artem\\project\\venv\\lib\\site-packages\\PyQt5\\Qt\\translations\\qtbase_fr.qm',
   'DATA'),
  ('PyQt5\\Qt\\translations\\qtbase_lv.qm',
   'C:\\users\\vital\\desktop\\artem\\project\\venv\\lib\\site-packages\\PyQt5\\Qt\\translations\\qtbase_lv.qm',
   'DATA'),
  ('PyQt5\\Qt\\translations\\qtbase_pl.qm',
   'C:\\users\\vital\\desktop\\artem\\project\\venv\\lib\\site-packages\\PyQt5\\Qt\\translations\\qtbase_pl.qm',
   'DATA'),
  ('PyQt5\\Qt\\translations\\qtbase_tr.qm',
   'C:\\users\\vital\\desktop\\artem\\project\\venv\\lib\\site-packages\\PyQt5\\Qt\\translations\\qtbase_tr.qm',
   'DATA'),
  ('PyQt5\\Qt\\translations\\qtbase_gd.qm',
   'C:\\users\\vital\\desktop\\artem\\project\\venv\\lib\\site-packages\\PyQt5\\Qt\\translations\\qtbase_gd.qm',
   'DATA'),
  ('PyQt5\\Qt\\translations\\qtbase_zh_TW.qm',
   'C:\\users\\vital\\desktop\\artem\\project\\venv\\lib\\site-packages\\PyQt5\\Qt\\translations\\qtbase_zh_TW.qm',
   'DATA'),
  ('PyQt5\\Qt\\translations\\qtbase_ja.qm',
   'C:\\users\\vital\\desktop\\artem\\project\\venv\\lib\\site-packages\\PyQt5\\Qt\\translations\\qtbase_ja.qm',
   'DATA'),
  ('PyQt5\\Qt\\translations\\qtbase_hu.qm',
   'C:\\users\\vital\\desktop\\artem\\project\\venv\\lib\\site-packages\\PyQt5\\Qt\\translations\\qtbase_hu.qm',
   'DATA'),
  ('PyQt5\\Qt\\translations\\qtbase_it.qm',
   'C:\\users\\vital\\desktop\\artem\\project\\venv\\lib\\site-packages\\PyQt5\\Qt\\translations\\qtbase_it.qm',
   'DATA'),
  ('PyQt5\\Qt\\translations\\qtbase_sk.qm',
   'C:\\users\\vital\\desktop\\artem\\project\\venv\\lib\\site-packages\\PyQt5\\Qt\\translations\\qtbase_sk.qm',
   'DATA'),
  ('PyQt5\\Qt\\translations\\qtbase_ko.qm',
   'C:\\users\\vital\\desktop\\artem\\project\\venv\\lib\\site-packages\\PyQt5\\Qt\\translations\\qtbase_ko.qm',
   'DATA'),
  ('PyQt5\\Qt\\translations\\qtbase_de.qm',
   'C:\\users\\vital\\desktop\\artem\\project\\venv\\lib\\site-packages\\PyQt5\\Qt\\translations\\qtbase_de.qm',
   'DATA'),
  ('main.exe.manifest',
   'C:\\Users\\vital\\Desktop\\artem\\project\\build\\main\\main.exe.manifest',
   'BINARY'),
  ('pyi-windows-manifest-filename main.exe.manifest', '', 'OPTION')],
 [],
 False,
 False,
 1608636818,
 [('runw.exe',
   'c:\\users\\vital\\desktop\\artem\\project\\venv\\lib\\site-packages\\PyInstaller\\bootloader\\Windows-64bit\\runw.exe',
   'EXECUTABLE')])
